C:\Users\Ilya\IdeaProjects\work\ESShell\src\main\java\psu\ru\esshell\model\pojos\MenuPojo.java
C:\Users\Ilya\IdeaProjects\work\ESShell\target\generated-sources\jooq\org\jooq\util\maven\example\tables\records\VariableRecord.java
C:\Users\Ilya\IdeaProjects\work\ESShell\target\generated-sources\jooq\org\jooq\util\maven\example\Tables.java
C:\Users\Ilya\IdeaProjects\work\ESShell\target\generated-sources\jooq\org\jooq\util\maven\example\Keys.java
C:\Users\Ilya\IdeaProjects\work\ESShell\target\generated-sources\jooq\org\jooq\util\maven\example\DefaultCatalog.java
C:\Users\Ilya\IdeaProjects\work\ESShell\target\generated-sources\jooq\org\jooq\util\maven\example\tables\records\DomainRecord.java
C:\Users\Ilya\IdeaProjects\work\ESShell\src\main\java\psu\ru\esshell\controller\MenuController.java
C:\Users\Ilya\IdeaProjects\work\ESShell\target\generated-sources\jooq\org\jooq\util\maven\example\Public.java
C:\Users\Ilya\IdeaProjects\work\ESShell\target\generated-sources\jooq\org\jooq\util\maven\example\Sequences.java
C:\Users\Ilya\IdeaProjects\work\ESShell\target\generated-sources\jooq\org\jooq\util\maven\example\tables\Variable.java
C:\Users\Ilya\IdeaProjects\work\ESShell\target\generated-sources\jooq\org\jooq\util\maven\example\tables\KindVariable.java
C:\Users\Ilya\IdeaProjects\work\ESShell\target\generated-sources\jooq\org\jooq\util\maven\example\Indexes.java
C:\Users\Ilya\IdeaProjects\work\ESShell\target\generated-sources\jooq\org\jooq\util\maven\example\tables\Domain.java
C:\Users\Ilya\IdeaProjects\work\ESShell\src\main\java\psu\ru\esshell\controller\DomainController.java
C:\Users\Ilya\IdeaProjects\work\ESShell\src\main\java\psu\ru\esshell\service\MenuService.java
C:\Users\Ilya\IdeaProjects\work\ESShell\src\main\java\psu\ru\esshell\model\pojos\DomainPojo.java
C:\Users\Ilya\IdeaProjects\work\ESShell\src\main\java\psu\ru\esshell\model\pojos\MenuItemPojo.java
C:\Users\Ilya\IdeaProjects\work\ESShell\target\generated-sources\jooq\org\jooq\util\maven\example\tables\records\KindVariableRecord.java
C:\Users\Ilya\IdeaProjects\work\ESShell\src\main\java\psu\ru\esshell\Application.java
